f(1) is equal to 0.607
Pi =
3.141
The precision is better than 1.0e-03 for n >=6
Interval boundary  >= 2.2 for > 99 percent of the square of the indefinite integral included
Pi =
3.141
The precision is better than 1.0e-03 for n >=6
Interval boundary  >= 2.2 for > 99 percent of the square of the indefinite integral included
